Django==1.4.8
Markdown==2.3.1
PIL==1.1.7
South==0.8.2
argparse==1.2.1
cmsplugin-filer==0.9.5
diff-match-patch==20120106
django-classy-tags==0.4
django-cms==2.3.7
django-cms-search==0.6.3
django-debug-toolbar==0.9.4
django-filer==0.9.5
django-filter==0.7
django-haystack==1.2.7
django-import-export==0.1.4
django-mptt==0.5.2
django-polymorphic==0.5.2
django-reversion==1.7.1
django-sekizai==0.7
django-suit==0.2.4
django-transmeta==0.7.3
djangocms-text-ckeditor==2.0.2
djangorestframework==2.3.7
docutils==0.11
easy-thumbnails==1.3
html5lib==1.0b3
ipython==1.1.0
psycopg2==2.5.1
pyelasticsearch==0.6
pysolr==3.1.0
python-ptrace==0.6.5
requests==1.2.3
simplejson==3.3.0
six==1.4.1
solr==0.4
tablib==0.9.11
wsgiref==0.1.2
cmsplugin-htmlsitemap==0.1.3
cmsplugin-contact==1.0.0
